<?xml version="1.0" standalone="no"?>
<!DOCTYPE svg PUBLIC "-//W3C//DTD SVG 1.1//EN" "http://www.w3.org/Graphics/SVG/1.1/DTD/svg11.dtd" >
<svg xmlns="http://www.w3.org/2000/svg">
<metadata>Generated by IcoMoon</metadata>
<defs>
<font id="icomoon" horiz-adv-x="1024">
<font-face units-per-em="1024" ascent="960" descent="-64" />
<missing-glyph horiz-adv-x="1024" />
<glyph unicode="&#x20;" horiz-adv-x="512" d="" />
<glyph unicode="&#xe900;" glyph-name="oe-dh-logo" horiz-adv-x="7228" d="M659.576 267.294c3.012-33.129-21.082-66.259-54.212-69.271-6.024 0-9.035 0-15.059 0h-3.012c-36.141-3.012-66.259 24.094-69.271 57.224 0 3.012 0 9.035 0 12.047v394.541c-3.012 36.141 21.082 66.259 57.224 69.271 3.012 0 9.035 0 12.047 0v0c36.141 3.012 66.259-21.082 69.271-57.224 0-3.012 0-9.035 0-12.047 3.012 0 3.012-394.541 3.012-394.541zM448.753 267.294c3.012-33.129-21.082-66.259-54.212-69.271-6.024 0-9.035 0-15.059 0v0c-36.141-3.012-66.259 24.094-69.271 57.224 0 3.012 0 9.035 0 12.047v180.706c-3.012 36.141 21.082 66.259 57.224 69.271 3.012 0 9.035 0 12.047 0h3.012c36.141 3.012 66.259-21.082 69.271-57.224 0-3.012 0-9.035 0-12.047l-3.012-180.706zM496.941 938.918c-268.047 0-487.906-219.859-484.894-487.906 0-268.047 219.859-487.906 487.906-487.906s487.906 219.859 487.906 487.906c0 0 0 0 0 0-3.012 271.059-219.859 487.906-490.918 487.906 0 0 0 0 0 0zM861.365 929.882v-12.047h18.071v-54.212h12.047v54.212h18.071v12.047h-48.188zM963.765 929.882l-15.059-36.141-18.071 36.141h-12.047v-66.259h12.047v39.153l12.047-24.094h9.035l12.047 24.094v-39.153h12.047v66.259h-12.047zM1575.153 463.059c0-87.341-3.012-129.506-24.094-156.612-21.082-24.094-51.2-39.153-84.329-36.141h-87.341v382.494h87.341c33.129 3.012 63.247-12.047 84.329-36.141 21.082-27.106 24.094-63.247 24.094-153.6zM1689.6 466.071c0 87.341 6.024 168.659-60.235 234.918-42.165 39.153-96.376 57.224-153.6 54.212h-210.824v-584.282h210.824c57.224-3.012 111.435 18.071 153.6 57.224 66.259 63.247 60.235 147.576 60.235 237.929zM1785.976 170.918h358.4v99.388h-249.976v144.565h213.835v99.388h-213.835v138.541h249.976v99.388h-358.4zM2358.212 601.6c0 30.118 27.106 57.224 75.294 57.224 45.176-3.012 87.341-21.082 120.471-51.2l6.024-6.024 63.247 84.329-3.012 6.024c-51.2 45.176-117.459 69.271-183.718 69.271-108.424 0-186.729-69.271-186.729-168.659s60.235-138.541 168.659-177.694c90.353-33.129 102.4-54.212 102.4-84.329 0-36.141-30.118-60.235-81.318-60.235-54.212 3.012-105.412 24.094-144.565 63.247l-9.035 9.035-63.247-87.341 6.024-6.024c57.224-54.212 132.518-84.329 210.824-84.329 108.424 0 192.753 66.259 192.753 174.682 0 87.341-54.212 132.518-159.624 174.682-96.376 33.129-111.435 54.212-114.447 87.341zM2755.765 752.188h114.447v-584.282h-114.447v584.282zM3388.235 231.153c39.153 42.165 54.212 93.365 54.212 177.694v105.412h-219.859v-102.4h114.447v-36.141c3.012-30.118-6.024-57.224-24.094-78.306-24.094-21.082-57.224-33.129-87.341-30.118-27.106-3.012-54.212 9.035-72.282 30.118-24.094 27.106-27.106 51.2-27.106 165.647s6.024 138.541 27.106 162.635c15.059 18.071 36.141 27.106 57.224 30.118 6.024 0 12.047 0 15.059 0 45.176-3.012 87.341-21.082 120.471-51.2l6.024-6.024 63.247 84.329-6.024 6.024c-51.2 45.176-117.459 69.271-183.718 69.271h-9.035c-57.224 0-111.435-24.094-150.588-66.259-24.094-24.094-42.165-54.212-48.188-87.341-9.035-48.188-12.047-96.376-9.035-144.565 0-48.188 3.012-96.376 9.035-144.565 6.024-33.129 24.094-63.247 48.188-87.341 42.165-42.165 99.388-66.259 156.612-63.247 63.247-3.012 123.482 21.082 165.647 66.259zM3894.212 170.918h102.4v581.271h-114.447v-355.388l-231.906 355.388h-102.4v-581.271h114.447v358.4zM4629.082 170.918h114.447v581.271h-114.447v-237.929h-198.776v237.929h-114.447v-581.271h114.447v243.953h198.776zM5174.212 463.059c0-114.447-6.024-141.553-30.118-165.647-18.071-21.082-45.176-30.118-72.282-30.118s-54.212 9.035-75.294 30.118c-21.082 24.094-27.106 51.2-27.106 165.647s6.024 141.553 27.106 165.647c18.071 21.082 45.176 30.118 75.294 30.118 27.106 0 54.212-9.035 72.282-30.118 21.082-24.094 30.118-51.2 30.118-165.647zM5228.424 228.141c60.235 60.235 57.224 132.518 57.224 234.918s0 174.682-57.224 234.918c-87.341 87.341-228.894 87.341-319.247 0-60.235-60.235-57.224-132.518-57.224-234.918s-3.012-174.682 57.224-234.918c90.353-84.329 231.906-84.329 319.247 0zM5592.847 652.8h138.541v99.388h-391.529v-99.388h141.553v-481.882h111.435zM5815.718 170.918h358.4v99.388h-252.988v144.565h216.847v99.388h-216.847v138.541h252.988v99.388h-358.4zM6294.588 170.918h292.141v99.388h-177.694v481.882h-114.447zM6773.459 601.6c0 30.118 27.106 57.224 75.294 57.224 45.176-3.012 87.341-21.082 120.471-51.2l6.024-6.024 63.247 84.329-6.024 6.024c-51.2 45.176-117.459 69.271-183.718 69.271-108.424 0-186.729-69.271-186.729-168.659s60.235-138.541 168.659-177.694c90.353-33.129 102.4-54.212 102.4-84.329 0-36.141-30.118-60.235-81.318-60.235-54.212 3.012-105.412 24.094-144.565 63.247l-9.035 9.035-66.259-84.329 6.024-6.024c57.224-54.212 132.518-84.329 210.824-84.329 108.424 0 192.753 66.259 192.753 174.682 0 87.341-54.212 132.518-159.624 174.682-96.376 33.129-111.435 51.2-108.424 84.329zM7092.706 752.188v-12.047h15.059v-51.2h12.047v54.212h18.071v9.035h-45.176zM7195.106 752.188l-15.059-33.129-18.071 36.141h-12.047v-66.259h12.047v36.141l12.047-24.094h9.035l12.047 24.094v-36.141h12.047v63.247h-12.047z" />
<glyph unicode="&#xe90a;" glyph-name="oe-loupe" horiz-adv-x="1071" d="M1032.533-4.267l-290.133 290.133c145.067 170.667 119.467 426.667-51.2 571.733s-426.667 119.467-571.733-51.2-119.467-426.667 55.467-571.733c149.333-123.733 366.933-123.733 516.267 0l290.133-290.133 51.2 51.2zM68.267 546.133c0 200.533 162.133 362.667 362.667 362.667s362.667-162.133 362.667-362.667-162.133-362.667-362.667-362.667v0c-200.533 0-362.667 162.133-362.667 362.667z" />
<glyph unicode="&#xe90b;" glyph-name="oe-next-story" horiz-adv-x="540" d="M534.505 448l-495.121 512-39.385-39.385 455.736-472.615-455.736-472.615 39.385-33.758 489.495 500.747z" />
<glyph unicode="&#xe90c;" glyph-name="oe-next-thumb" horiz-adv-x="537" d="M23.349-64l-23.349 23.349 486.984 490.319-486.984 486.984 23.349 23.349 513.668-510.332z" />
<glyph unicode="&#xe90d;" glyph-name="oe-play" d="M512-58.776c-280.033 0-506.776 226.743-506.776 506.776s226.743 506.776 506.776 506.776 506.776-226.743 506.776-506.776c0-280.033-226.743-506.776-506.776-506.776zM512 944.327c-273.763 0-496.327-222.563-496.327-496.327s222.563-496.327 496.327-496.327 496.327 222.563 496.327 496.327c0 273.763-222.563 496.327-496.327 496.327zM682.318 448l-316.604-182.857v365.714z" />
<glyph unicode="&#xe90e;" glyph-name="oe-player-close" horiz-adv-x="1028" d="M1024 928.561l-31.439 31.439-480.561-480.561-476.070 480.561-31.439-31.439 476.070-480.561-476.070-476.070 31.439-31.439 476.070 476.070 480.561-476.070 31.439 31.439-480.561 476.070z" />
<glyph unicode="&#xe90f;" glyph-name="oe-player-play" horiz-adv-x="891" d="M0 960v-1029.12l885.76 517.12z" />
<glyph unicode="&#xe910;" glyph-name="oe-player-volume" horiz-adv-x="1528" d="M0 669.612v-463.602l356.617-5.095 438.129-270.010v1029.095l-438.129-280.199-356.617-10.189zM50.945 623.761l285.294 10.189v-376.995l-285.294 5.095v361.711zM743.801 27.702l-351.522 219.065v397.373l351.522 224.159v-840.597zM1095.323 679.801c71.323-71.323 112.080-163.025 117.174-259.821-5.095-96.796-45.851-188.498-117.174-259.821l50.945-50.945c86.607 81.512 132.458 188.498 137.552 310.766-5.095 117.174-56.040 229.254-137.552 310.766l-50.945-50.945zM1390.806 730.746l-50.945-50.945c71.323-76.418 112.080-173.214 117.174-270.010-5.095-96.796-45.851-183.403-117.174-249.632l45.851-50.945c86.607 76.418 132.458 188.498 137.552 305.672 0 117.174-50.945 229.254-132.458 315.861z" />
<glyph unicode="&#xe911;" glyph-name="oe-player-volume-no" horiz-adv-x="1134" d="M779.239 605.346l349.659 319.688-34.966 34.966-319.688-289.717v284.722l-424.585-269.737-309.698 274.732-29.971-34.966 264.741-239.766-274.732-9.99v-454.556l274.732-4.995-264.741-239.766 34.966-34.966 304.702 274.732h4.995l429.581-264.741v274.732l319.688-289.717 34.966 34.966-349.659 319.688v314.693zM729.288 340.605l-119.883 109.893 119.883 109.893v-219.785zM729.288 625.327l-159.844-144.859-184.82 169.834 339.668 214.79v-239.766zM529.483 450.498l-149.854-134.868v269.737l149.854-134.868zM49.951 270.673v354.654l279.727 9.99 4.995-4.995v-364.644l-4.995-4.995-279.727 9.99zM729.288 40.898l-339.668 209.795 184.82 164.839 159.844-144.859v-229.776z" />
<glyph unicode="&#xe912;" glyph-name="oe-previous-story" horiz-adv-x="540" d="M61.89 431.121l472.615 483.868-45.011 39.385-489.495-506.374 16.879-16.879-16.879-16.879 495.121-512 39.385 39.385z" />
<glyph unicode="&#xe913;" glyph-name="oe-previous-thumb" horiz-adv-x="537" d="M513.668-64l-513.668 510.332 513.668 513.668 23.349-23.349-490.319-490.319 490.319-486.984z" />
<glyph unicode="&#xe914;" glyph-name="oe-scroll-down" horiz-adv-x="1928" d="M1927.529 875.671l-72.282 78.306-891.482-861.365-891.482 867.388-72.282-78.306 963.765-933.647z" />
<glyph unicode="&#xe915;" glyph-name="oe-share-story" horiz-adv-x="1254" d="M919.51 588.016v-41.796h271.673v-526.629h-1128.49v526.629h271.673v41.796h-313.469v-610.22h1212.082v610.22zM865.176 742.661l-242.416 225.698-234.057-225.698 25.078-33.437 188.082 179.722 8.359-618.58h41.796l-8.359 618.58 196.441-179.722z" />
<glyph unicode="&#xe918;" glyph-name="oe-spg" horiz-adv-x="1983" d="M1178.689 20.97c0 2.179-2.179 2.179-2.179 2.179h-41.396c-2.179 0-4.357 0-4.357-2.179s2.179-2.179 4.357-4.357c2.179-2.179 4.357-6.536 2.179-10.894v-26.145c-2.179-17.43-17.43-28.323-34.86-28.323-37.038 0-47.932 39.217-47.932 69.719s4.357 78.434 43.574 78.434c28.323 0 39.217-10.894 43.574-39.217 0-2.179 0-2.179 2.179-2.179s2.179 0 2.179 2.179c0 0 0 0 0 2.179v43.574c0 2.179-2.179 2.179-4.357 4.357-15.251 0-32.681 4.357-47.932 4.357-37.038 0-69.719-32.681-69.719-84.97 0-58.826 34.86-84.97 71.898-84.97 10.894 0 21.787 2.179 30.502 8.715 2.179 2.179 4.357 2.179 6.536 0l15.251-6.536c2.179 0 2.179 0 4.357 0s2.179 0 2.179 2.179c0 0 0 0 0 0s0 2.179-2.179 2.179-2.179 4.357-2.179 6.536v50.111c0 6.536 4.357 10.894 8.715 13.072l10.894 2.179c8.715-4.357 8.715-2.179 8.715-2.179zM1315.949-53.106c0 2.179-2.179 2.179-4.357 2.179l-6.536 2.179c-6.536 2.179-8.715 6.536-8.715 13.072v91.506c0 2.179-2.179 2.179-2.179 4.357 0 0 0 0 0 0h-32.681c-2.179 0-4.357 0-4.357-2.179s2.179-2.179 4.357-2.179l6.536-2.179c6.536-2.179 8.715-6.536 8.715-13.072v-63.183c-4.357-13.072-15.251-21.787-30.502-21.787-13.072-2.179-23.966 6.536-26.145 19.609 0 2.179 0 2.179 0 4.357v56.647c0 6.536 0 10.894 4.357 15.251 2.179 0 2.179 2.179 4.357 4.357 0 2.179 0 2.179-4.357 2.179h-37.038c-2.179 0-4.357 0-4.357-2.179s2.179-2.179 4.357-2.179l6.536-2.179c6.536-2.179 8.715-6.536 8.715-13.072v-54.468c-2.179-21.787 10.894-39.217 32.681-43.574 2.179 0 4.357 0 6.536 0 13.072 0 26.145 6.536 34.86 17.43 0 2.179 2.179 0 2.179 0l4.357-8.715c0-2.179 2.179-2.179 4.357-2.179h28.323c-2.179-2.179 0-2.179 0 0zM1420.528 12.255c2.179 26.145-15.251 47.932-39.217 50.111-2.179 0-4.357 0-6.536 0-30.502-2.179-52.289-28.323-52.289-56.647 0 0 0-2.179 0-2.179 0-43.574 26.145-61.004 50.111-61.004 17.43 0 34.86 8.715 43.574 23.966 0 0 0 2.179 0 2.179l-4.357 4.357c0 0-2.179 0-2.179 0-6.536-8.715-17.43-15.251-28.323-17.43-15.251 0-32.681 10.894-34.86 43.574 0 2.179 2.179 4.357 4.357 4.357h63.183c4.357 0 6.536 4.357 6.536 8.715zM1398.74 23.149c0-4.357-2.179-8.715-6.536-8.715s-8.715-2.179-15.251-2.179h-28.323c-2.179 0-4.357 2.179-4.357 4.357 0 0 0 0 0 2.179 2.179 21.787 13.072 37.038 28.323 37.038 15.251-2.179 26.145-13.072 23.966-28.323 2.179-2.179 2.179-4.357 2.179-4.357zM1525.106-22.604c0 39.217-69.719 37.038-69.719 58.826 0 10.894 8.715 17.43 19.609 17.43 0 0 2.179 0 2.179 0 17.43 4.357 34.86-6.536 39.217-23.966 0 0 0 0 0 0 0-2.179 0-2.179 2.179-2.179s2.179 2.179 2.179 4.357v26.145c0 2.179-2.179 2.179-2.179 2.179-13.072 2.179-23.966 2.179-37.038 4.357-28.323 0-39.217-13.072-39.217-32.681 0-39.217 67.54-30.502 67.54-61.004-2.179-10.894-13.072-19.609-23.966-17.43-19.609-4.357-39.217 8.715-43.574 28.323 0 2.179-2.179 2.179-2.179 2.179-2.179 0-2.179-2.179-2.179-4.357s0-10.894 2.179-15.251 0-10.894 2.179-15.251 2.179-2.179 4.357-4.357c13.072-4.357 26.145-4.357 39.217-4.357 19.609 0 39.217 8.715 39.217 37.038zM1616.613-48.749l-2.179 4.357c0 0-2.179 0-2.179 0s0 0 0 0c-4.357-2.179-10.894-4.357-15.251-4.357-15.251 0-17.43 8.715-17.43 21.787v74.077h30.502c2.179 0 2.179 0 2.179 2.179 0 0 0 0 0 0v8.715c0 2.179 0 2.179-2.179 2.179h-32.681v37.038c0 2.179 0 2.179-2.179 2.179 0 0 0 0 0 0-2.179 0-2.179-2.179-2.179-2.179l-13.072-30.502c0-4.357-4.357-6.536-6.536-6.536h-15.251c-2.179 0-2.179 0-2.179-2.179 0 0 0 0 0 0v-8.715c0-2.179 2.179-2.179 2.179-2.179s0 0 0 0h21.787v-78.434c0-17.43 10.894-23.966 34.86-23.966 4.357 0 13.072 2.179 21.787 6.536-2.179 0-2.179 0 0 0-2.179 0-2.179 0 0 0zM1156.902 284.596c0 32.681-26.145 45.753-58.826 45.753h-74.077c-2.179 0-4.357 0-4.357-2.179s2.179-2.179 4.357-2.179l10.894-2.179c6.536-2.179 8.715-6.536 8.715-13.072v-128.545c0-6.536-2.179-10.894-8.715-13.072-2.179 0-4.357-2.179-4.357-4.357s2.179-2.179 4.357-2.179h50.111c2.179 0 4.357 0 4.357 2.179s-2.179 2.179-4.357 4.357l-8.715 2.179c-4.357 2.179-8.715 6.536-8.715 13.072v45.753c0 2.179 2.179 4.357 4.357 4.357h17.43c45.753 0 67.54 21.787 67.54 50.111zM1132.936 284.596c0-32.681-21.787-39.217-45.753-39.217h-15.251c-2.179 0-4.357 2.179-4.357 4.357v61.004c0 4.357 4.357 6.536 6.536 6.536h15.251c30.502 2.179 43.574-8.715 43.574-32.681zM1252.766 278.060c0 2.179-2.179 4.357-4.357 4.357s-6.536 2.179-8.715 2.179c-15.251 0-28.323-6.536-37.038-19.609 0 0 0 0-2.179 0 0 0-2.179 0-2.179 0s0 0 0 2.179l-4.357 13.072c0 2.179-2.179 4.357-4.357 2.179h-26.145c-2.179 0-4.357 0-4.357-2.179s2.179-2.179 4.357-2.179l8.715-2.179c6.536-2.179 8.715-6.536 8.715-10.894v-76.255c0-6.536-2.179-10.894-8.715-13.072l-6.536-2.179c-2.179 0-4.357-2.179-4.357-4.357s2.179-2.179 4.357-2.179h47.932c2.179 0 4.357 0 4.357 2.179s-2.179 2.179-4.357 2.179l-6.536 2.179c-6.536 2.179-8.715 6.536-8.715 13.072v58.826c0 4.357 2.179 8.715 4.357 10.894 4.357 8.715 13.072 13.072 21.787 13.072 6.536 2.179 13.072-2.179 15.251-8.715 0-2.179 2.179-6.536 4.357-8.715 2.179 0 2.179 2.179 2.179 4.357l6.536 21.787zM1357.345 232.306c2.179 26.145-15.251 47.932-39.217 52.289-2.179 0-4.357 0-4.357 0-30.502-2.179-54.468-28.323-52.289-58.826 0 0 0-2.179 0-2.179 0-43.574 26.145-61.004 50.111-61.004 17.43 0 32.681 8.715 39.217 23.966 0 0 0 2.179 0 2.179l-4.357 4.357c0 0-2.179 0-2.179 0s0 0 0 0c-6.536-8.715-17.43-15.251-28.323-17.43-15.251 0-32.681 10.894-34.86 43.574 0 2.179 2.179 4.357 4.357 4.357h63.183c4.357 0 6.536 4.357 8.715 8.715zM1333.379 243.2c0-4.357-2.179-8.715-6.536-8.715s-8.715-2.179-15.251-2.179h-26.145c-2.179 0-4.357 2.179-4.357 4.357 0 0 0 0 0 2.179 2.179 21.787 13.072 34.86 28.323 34.86 15.251-2.179 26.145-13.072 23.966-28.323 2.179 0 2.179-2.179 0-2.179zM1448.851 334.706c0 2.179 0 2.179 0 4.357-6.536 4.357-15.251 6.536-23.966 6.536-17.43 2.179-34.86-8.715-37.038-26.145 0-2.179 0-4.357 0-6.536v-30.502h-15.251c-2.179 0-2.179 0-2.179-2.179 0 0 0 0 0 0v-6.536c0-2.179 2.179-2.179 2.179-2.179s0 0 0 0h15.251v-82.791c0-4.357 0-10.894-4.357-13.072-2.179 0-2.179-2.179-4.357-4.357 0-2.179 0-2.179 4.357-2.179h41.396c2.179 0 4.357 0 4.357 2.179s-2.179 2.179-4.357 2.179l-8.715-2.179c-6.536 2.179-10.894 6.536-8.715 13.072v82.791h37.038c2.179 0 2.179 0 2.179 2.179 0 0 0 0 0 0v8.715c0 2.179-2.179 2.179-2.179 2.179s0 0 0 0h-39.217v37.038c-2.179 8.715 4.357 17.43 15.251 19.609 0 0 0 0 0 0 8.715-2.179 15.251-6.536 19.609-15.251 0 0 2.179-2.179 2.179 0 2.179 0 2.179 0 4.357 2.179l2.179 10.894zM1546.894 232.306c2.179 26.145-15.251 47.932-39.217 52.289-2.179 0-4.357 0-4.357 0-30.502-2.179-52.289-28.323-52.289-56.647 0 0 0-2.179 0-2.179 0-43.574 26.145-61.004 50.111-61.004 17.43 0 32.681 8.715 41.396 23.966 0 0 0 2.179 0 2.179l-4.357 4.357c0 0-2.179 0-2.179 0s0 0 0 0c-6.536-8.715-17.43-15.251-28.323-17.43-15.251 0-32.681 10.894-34.86 43.574 0 2.179 2.179 6.536 6.536 6.536 0 0 0 0 0 0h63.183c2.179-2.179 4.357 0 4.357 4.357zM1525.106 243.2c0-4.357-2.179-8.715-6.536-8.715-4.357-2.179-8.715-2.179-15.251-2.179h-26.145c-2.179 0-4.357 2.179-4.357 4.357 0 0 0 0 0 2.179 2.179 21.787 13.072 34.86 28.323 34.86 15.251-2.179 26.145-15.251 23.966-30.502 0 2.179 0 0 0 0zM1647.115 278.060c0 2.179-2.179 4.357-4.357 4.357s-4.357 2.179-8.715 2.179c-15.251 0-28.323-6.536-34.86-19.609 0 0 0 0-2.179 0 0 0-2.179 0-2.179 2.179l-4.357 8.715c0 2.179-2.179 4.357-4.357 2.179h-28.323c-2.179 0-4.357 0-4.357-2.179s2.179-2.179 4.357-2.179l8.715-2.179c6.536-2.179 8.715-6.536 8.715-10.894v-76.255c0-6.536-2.179-10.894-8.715-13.072l-6.536-2.179c-2.179 0-4.357-2.179-4.357-4.357s2.179-2.179 4.357-2.179h47.932c2.179 0 4.357 0 4.357 2.179s-2.179 2.179-4.357 2.179l-6.536 2.179c-6.536 2.179-8.715 6.536-8.715 13.072v58.826c0 4.357 2.179 8.715 4.357 10.894 4.357 8.715 13.072 13.072 21.787 13.072 6.536 2.179 13.072-2.179 15.251-8.715 0-2.179 2.179-6.536 4.357-8.715 2.179 0 2.179 2.179 2.179 4.357l6.536 26.145zM1740.8 278.060c0 2.179-2.179 4.357-4.357 4.357s-6.536 2.179-8.715 2.179c-15.251 0-28.323-6.536-37.038-19.609 0 0 0 0-2.179 0 0 0-2.179 0-2.179 2.179l-4.357 13.072c0 2.179-2.179 4.357-4.357 2.179h-26.145c-2.179 0-4.357 0-4.357-2.179s2.179-2.179 4.357-2.179l8.715-2.179c6.536-2.179 8.715-6.536 8.715-13.072v-78.434c0-6.536-2.179-10.894-8.715-13.072h-4.357c-2.179 0-4.357-2.179-4.357-4.357s2.179-2.179 4.357-2.179h47.932c2.179 0 4.357 0 4.357 2.179s-2.179 2.179-4.357 2.179l-4.357 2.179c-6.536 2.179-8.715 6.536-8.715 13.072v58.826c0 4.357 2.179 8.715 4.357 10.894 4.357 8.715 13.072 13.072 21.787 13.072 6.536 2.179 13.072-2.179 15.251-8.715 0-2.179 2.179-6.536 4.357-8.715 2.179 0 2.179 2.179 2.179 4.357l2.179 23.966zM1845.379 232.306c2.179 26.145-15.251 47.932-39.217 52.289-2.179 0-4.357 0-4.357 0-30.502-2.179-52.289-28.323-52.289-58.826 0 0 0 0 0-2.179 0-43.574 26.145-61.004 50.111-61.004 17.43 0 32.681 8.715 41.396 23.966 0 0 0 2.179 0 2.179l-4.357 4.357c0 0-2.179 0-2.179 0s0 0 0 0c-6.536-8.715-17.43-15.251-28.323-17.43-15.251 0-32.681 10.894-34.86 43.574 0 2.179 2.179 6.536 4.357 6.536 0 0 0 0 0 0h63.183c4.357 0 6.536 4.357 6.536 6.536zM1823.591 245.379c0-4.357-2.179-8.715-6.536-8.715-4.357-2.179-8.715-2.179-15.251-2.179h-28.323c-2.179 0-4.357 2.179-4.357 4.357 0 0 0 0 0 2.179 2.179 21.787 13.072 34.86 28.323 34.86s26.145-13.072 23.966-28.323c2.179-2.179 2.179-2.179 2.179-2.179zM1980.46 169.123c0 2.179-2.179 2.179-4.357 2.179l-8.715 2.179c-4.357 2.179-6.536 6.536-6.536 10.894v154.689c0 2.179-2.179 4.357-2.179 4.357s0 0 0 0h-37.038c-2.179 0-4.357 0-4.357-2.179s2.179-2.179 4.357-2.179l10.894-2.179c6.536 0 8.715-6.536 8.715-10.894v-43.574c0 0 0-2.179-2.179-2.179 0 0 0 0 0 0-8.715 2.179-17.43 4.357-26.145 4.357-30.502-2.179-52.289-28.323-50.111-56.647 0 0 0-2.179 0-2.179 0-43.574 21.787-61.004 47.932-61.004 10.894 0 21.787 4.357 28.323 13.072 0 0 2.179 2.179 2.179 2.179s2.179 0 2.179-2.179l4.357-6.536c0-2.179 2.179-2.179 4.357-4.357h28.323c-2.179-2.179 0-2.179 0 2.179zM1939.064 197.447c0-2.179 0-4.357-2.179-6.536-6.536-8.715-15.251-15.251-26.145-15.251-15.251 0-30.502 10.894-30.502 47.932 0 30.502 10.894 50.111 30.502 50.111 13.072 2.179 26.145-6.536 28.323-19.609 0-2.179 0-6.536 0-8.715v-47.932zM1143.83 430.57c0 61.004-91.506 45.753-91.506 89.328 0 13.072 10.894 23.966 23.966 21.787 0 0 2.179 0 2.179 0 23.966 4.357 47.932-13.072 52.289-37.038 0 0 0-2.179 0-2.179 0-2.179 0-2.179 2.179-2.179s2.179 2.179 2.179 2.179c0 0 0 0 0 0v43.574c0 2.179-2.179 4.357-4.357 4.357-17.43 2.179-34.86 4.357-52.289 4.357-23.966 2.179-45.753-15.251-47.932-39.217 0-2.179 0-2.179 0-4.357 0-54.468 91.506-39.217 91.506-87.149 0-17.43-13.072-30.502-28.323-30.502-2.179 0-4.357 0-6.536 0-26.145-2.179-50.111 15.251-54.468 41.396 0 2.179-2.179 2.179-2.179 2.179-2.179 0-2.179-2.179-2.179-2.179l4.357-43.574c0-2.179 2.179-2.179 4.357-4.357 15.251-2.179 32.681-4.357 47.932-4.357 32.681 0 58.826 13.072 58.826 47.932zM1233.157 393.532l-2.179 4.357c0 0-2.179 0-2.179 0s0 0 0 0c-4.357-4.357-8.715-4.357-15.251-4.357-15.251 0-17.43 8.715-17.43 21.787v74.077h32.681c2.179 0 2.179 0 2.179 2.179 0 0 0 0 0 0v8.715c0 2.179 0 2.179-2.179 2.179h-30.502v37.038c0 2.179 0 2.179-2.179 2.179 0 0 0 0 0 0-2.179 0-2.179 0-2.179-2.179l-13.072-30.502c0-4.357-4.357-6.536-6.536-6.536h-19.609c-2.179 0-2.179 0-2.179-2.179 0 0 0 0 0 0v-8.715c0-2.179 2.179-2.179 2.179-2.179s0 0 0 0h21.787v-78.434c0-17.43 10.894-23.966 32.681-23.966 8.715 0 15.251 2.179 21.787 6.536 2.179-2.179 2.179-2.179 2.179 0 0 0 0 0 0 0zM1355.166 386.996c0 2.179-2.179 2.179-4.357 2.179l-6.536 4.357c-6.536 2.179-8.715 6.536-8.715 13.072v56.647c0 32.681-17.43 41.396-43.574 41.396-10.894 0-23.966-2.179-34.86-2.179-2.179 0-2.179 0-2.179-2.179 0 0 0 0 0 0v-32.681c0 0 0-2.179 2.179-2.179 0 0 0 0 0 0s2.179 0 2.179 2.179c0 15.251 13.072 28.323 30.502 28.323 0 0 2.179 0 2.179 0 10.894 2.179 23.966-6.536 26.145-17.43v-10.894c0-6.536-6.536-13.072-15.251-13.072-13.072-4.357-28.323-6.536-39.217-10.894s-19.609-15.251-19.609-28.323c0-17.43 13.072-30.502 30.502-30.502 2.179 0 2.179 0 4.357 0 13.072 0 23.966 4.357 34.86 10.894 2.179 0 2.179 0 4.357 0s2.179 0 2.179-2.179l2.179-4.357c0-2.179 2.179-2.179 4.357-2.179h23.966c2.179-2.179 4.357-2.179 4.357 0zM1315.949 415.319c-2.179-15.251-17.43-23.966-30.502-21.787-10.894 0-21.787 6.536-21.787 19.609 0 2.179 0 4.357 0 4.357 0 8.715 6.536 15.251 13.072 15.251l37.038 10.894c2.179 0 2.179 0 2.179-2.179v-26.145zM1446.672 498.111c0 2.179-2.179 4.357-4.357 4.357s-6.536 2.179-8.715 2.179c-15.251 0-28.323-6.536-37.038-19.609 0 0 0 0-2.179 0 0 0-2.179 0-2.179 0l-4.357 13.072c0 2.179-2.179 4.357-4.357 2.179h-26.145c-2.179 0-4.357 0-4.357-2.179s2.179-2.179 4.357-2.179l8.715-2.179c6.536-2.179 8.715-6.536 8.715-10.894v-76.255c0-6.536-2.179-10.894-8.715-13.072l-6.536-2.179c-2.179 0-4.357-2.179-4.357-2.179 0-2.179 2.179-2.179 4.357-2.179h47.932c2.179 0 4.357 0 4.357 2.179s-2.179 2.179-4.357 2.179l-2.179 2.179c-6.536 2.179-8.715 6.536-8.715 13.072v56.647c0 4.357 2.179 8.715 4.357 10.894 4.357 8.715 13.072 13.072 21.787 13.072 6.536 2.179 13.072-2.179 17.43-8.715 0-2.179 2.179-6.536 4.357-8.715 2.179 0 2.179 2.179 2.179 4.357v23.966zM1625.328 500.289c0 2.179-2.179 2.179-4.357 2.179h-32.681c-2.179 0-4.357 0-4.357-2.179s0-2.179 2.179-2.179l6.536-2.179c2.179-2.179 4.357-6.536 2.179-8.715l-19.609-74.077c0-2.179-2.179-2.179-4.357 0l-28.323 84.97c-2.179 2.179-4.357 2.179-4.357 2.179-2.179 0-4.357 0-4.357-2.179l-30.502-84.97c0 0-2.179-2.179-2.179 0 0 0 0 0 0 0l-17.43 71.898c-2.179 4.357 0 6.536 2.179 8.715l4.357 2.179c0 0 2.179 2.179 2.179 2.179s-2.179 2.179-4.357 2.179h-39.217c-2.179 0-4.357 0-4.357-2.179s2.179-2.179 4.357-2.179l4.357-2.179c2.179 0 4.357-2.179 6.536-6.536l30.502-102.4c4.357-4.357 10.894-4.357 15.251 0l28.323 74.077c0 2.179 2.179 2.179 4.357 0 0 0 0 0 0 0l26.145-74.077c2.179-2.179 4.357-2.179 6.536-2.179s6.536 0 8.715 2.179l34.86 102.4c2.179 2.179 4.357 6.536 6.536 6.536 2.179 2.179 4.357 2.179 4.357 6.536zM1734.264 443.643c4.357 28.323-15.251 56.647-45.753 61.004-28.323 4.357-56.647-15.251-61.004-45.753 0-4.357 0-10.894 0-15.251-4.357-28.323 15.251-56.647 45.753-61.004 28.323-4.357 56.647 15.251 61.004 45.753 0 4.357 0 8.715 0 15.251zM1712.477 439.285c0-19.609-4.357-45.753-30.502-45.753s-32.681 32.681-32.681 54.468 6.536 45.753 30.502 45.753 32.681-32.681 32.681-54.468zM1856.272 443.643c4.357 28.323-15.251 56.647-45.753 61.004-28.323 4.357-56.647-15.251-61.004-45.753 0-4.357 0-10.894 0-15.251-4.357-28.323 15.251-56.647 45.753-61.004 28.323-4.357 56.647 15.251 61.004 45.753 0 4.357 0 8.715 0 15.251zM1834.485 439.285c0-19.609-4.357-45.753-30.502-45.753s-32.681 32.681-32.681 54.468 6.536 45.753 30.502 45.753 32.681-32.681 32.681-54.468zM1991.353 386.996c0 2.179-2.179 2.179-4.357 2.179l-6.536 4.357c-6.536 2.179-8.715 6.536-8.715 13.072v137.26l2.179 17.43c0 2.179-2.179 4.357-4.357 4.357 0 0 0 0 0 0h-37.038c-2.179 0-4.357 0-4.357-2.179s2.179-2.179 4.357-2.179l10.894-2.179c6.536 0 8.715-6.536 8.715-10.894v-43.574c0 0 0-2.179-2.179-2.179 0 0 0 0-2.179 0-8.715 2.179-17.43 4.357-26.145 4.357-30.502-2.179-52.289-28.323-50.111-58.826 0 0 0 0 0 0 0-43.574 21.787-61.004 47.932-61.004 10.894 0 21.787 4.357 28.323 13.072 0 0 2.179 2.179 2.179 2.179s2.179 0 2.179-2.179l4.357-6.536c0-2.179 2.179-2.179 4.357-2.179h28.323c2.179-6.536 4.357-6.536 2.179-4.357zM1952.136 417.498c0-2.179 0-4.357-2.179-6.536-6.536-8.715-15.251-15.251-26.145-15.251-15.251 0-30.502 10.894-30.502 47.932 0 30.502 10.894 50.111 30.502 50.111 13.072 2.179 26.145-6.536 28.323-19.609 0-2.179 0-6.536 0-8.715 0 0 0-47.932 0-47.932zM257.089 709.447c0 113.294-196.085 102.4-196.085 167.762 0 30.502 26.145 45.753 61.004 45.753 61.004 0 89.328-10.894 108.936-67.54 0-4.357 2.179-6.536 6.536-6.536s4.357 6.536 4.357 8.715l-2.179 76.255c0 4.357-4.357 6.536-6.536 8.715-34.86 4.357-69.719 6.536-106.757 8.715-78.434 0-108.936-39.217-108.936-91.506 0-111.115 193.906-89.328 193.906-169.94 0-32.681-37.038-50.111-65.362-50.111-63.183 0-100.221 15.251-122.009 78.434 0 4.357-4.357 8.715-8.715 8.715s-6.536-4.357-4.357-8.715c2.179-10.894 2.179-28.323 4.357-41.396s2.179-30.502 2.179-41.396c0-4.357 4.357-8.715 10.894-10.894 34.86-8.715 71.898-15.251 108.936-15.251 65.362 2.179 119.83 21.787 119.83 100.221zM612.221 779.166c0 124.187-63.183 172.119-132.902 172.119-32.681 0-61.004-15.251-82.791-37.038-2.179-2.179-4.357-4.357-6.536-4.357s-4.357 2.179-4.357 4.357l-8.715 21.787c-2.179 4.357-6.536 8.715-10.894 8.715h-87.149c-6.536 0-13.072-2.179-13.072-6.536 2.179-4.357 6.536-8.715 13.072-8.715l32.681-4.357c15.251-4.357 26.145-19.609 23.966-34.86v-370.383c2.179-13.072-2.179-28.323-8.715-39.217-4.357-2.179-8.715-6.536-10.894-10.894 0-4.357 2.179-4.357 10.894-4.357h115.472c6.536 0 13.072 2.179 13.072 6.536-2.179 4.357-6.536 8.715-13.072 8.715l-28.323 2.179c-15.251 4.357-28.323 17.43-26.145 34.86v100.221c0 2.179 2.179 4.357 4.357 6.536 0 0 2.179 0 2.179 0 23.966-8.715 50.111-13.072 76.255-13.072 74.077-2.179 141.617 63.183 141.617 167.762zM553.396 779.166c0-87.149-32.681-139.438-87.149-139.438-61.004 0-78.434 26.145-78.434 80.613v130.723c0 6.536 2.179 10.894 4.357 17.43 15.251 26.145 43.574 41.396 71.898 43.574 45.753-2.179 87.149-34.86 89.328-132.902zM986.962 916.426v19.609c0 4.357-2.179 6.536-8.715 6.536l-128.545-4.357c-21.787 8.715-43.574 13.072-67.54 13.072-78.434 0-139.438-45.753-139.438-115.472 0-43.574 26.145-82.791 67.54-100.221 2.179 0 4.357-2.179 4.357-4.357s-2.179-4.357-4.357-4.357c-21.787-8.715-37.038-32.681-37.038-56.647 0-15.251 6.536-28.323 19.609-37.038-30.502-15.251-50.111-47.932-52.289-82.791 0-69.719 67.54-95.864 126.366-95.864 76.255 0 183.013 28.323 183.013 122.009 0 74.077-47.932 91.506-115.472 91.506-34.86 0-76.255-2.179-91.506-2.179-15.251-2.179-28.323 6.536-32.681 21.787 0 2.179 0 2.179 0 4.357 0 19.609 19.609 30.502 45.753 30.502h21.787c78.434 0 137.26 45.753 137.26 115.472 0 26.145-8.715 52.289-26.145 71.898l84.97 2.179c8.715-2.179 10.894 0 13.072 4.357 0 0 0 0 0 0zM864.953 827.098c0-47.932-26.145-80.613-76.255-80.613-58.826 0-87.149 39.217-87.149 95.864-4.357 39.217 21.787 74.077 61.004 78.434 4.357 0 8.715 0 15.251 0 58.826 0 87.149-34.86 87.149-93.685zM910.706 563.472c0-54.468-67.54-65.362-108.936-65.362s-115.472 17.43-115.472 69.719c0 15.251 4.357 41.396 23.966 47.932 15.251 0 71.898 2.179 111.115 2.179 65.362 0 89.328-15.251 89.328-54.468zM1104.613 637.549l-28.323 32.681 43.574 6.536c0 2.179 0 2.179 0 2.179l-41.396 6.536 28.323 32.681-2.179 2.179-37.038-21.787v43.574h-4.357l-17.43-37.038-28.323 32.681-2.179-2.179 15.251-41.396-41.396 6.536v-2.179l37.038-21.787-37.038-21.787h2.179l43.574 6.536-15.251-41.396 2.179-2.179 28.323 32.681 15.251-41.396h4.357v43.574l37.038-21.787-2.179 6.536z" />
<glyph unicode="&#xe919;" glyph-name="oe-spg-partner" horiz-adv-x="4004" d="M3131.669 16.842c0 1.925-1.925 3.85-3.85 1.925h-40.421c-1.925 0-3.85 0-3.85-1.925s1.925-3.85 3.85-3.85c1.925-1.925 3.85-5.774 3.85-9.624v-26.947c-1.925-17.323-17.323-28.872-34.647-28.872-38.496 0-48.12 38.496-48.12 69.293s3.85 78.917 44.271 78.917c26.947 0 38.496-11.549 46.195-40.421 0-1.925 0-3.85 1.925-3.85s3.85 0 3.85 1.925c0 0 0 1.925 0 1.925v44.271c0 1.925-1.925 3.85-3.85 3.85-15.398 1.925-32.722 3.85-48.12 3.85-38.496 0-69.293-32.722-69.293-86.617 0-59.669 34.647-86.617 73.143-86.617 11.549 0 21.173 1.925 30.797 7.699 1.925 1.925 3.85 1.925 5.774 0l17.323-7.699c1.925 0 1.925 0 3.85 0s1.925 0 1.925 1.925c0 0 0 0 0 0 0 1.925 0 1.925-1.925 1.925-1.925 1.925-1.925 5.774-1.925 7.699v51.97c0 5.774 3.85 11.549 9.624 13.474l7.699 1.925c0 1.925 1.925 1.925 1.925 3.85zM3270.256-60.15c0 1.925-1.925 3.85-3.85 3.85l-7.699 1.925c-5.774 1.925-9.624 5.774-9.624 11.549v76.992l1.925 19.248c0 1.925 0 3.85-1.925 3.85 0 0-1.925 0-1.925 0h-32.722c-1.925 0-3.85 0-3.85-1.925s1.925-3.85 3.85-3.85l5.774-1.925c5.774-1.925 9.624-5.774 9.624-13.474v-63.519c0-13.474-19.248-21.173-30.797-21.173-13.474-1.925-25.023 7.699-25.023 19.248 0 1.925 0 3.85 0 5.774v57.744c-1.925 5.774 0 11.549 3.85 15.398 1.925 0 3.85 1.925 3.85 3.85s-1.925 1.925-3.85 1.925h-38.496c-1.925 0-3.85 0-3.85-1.925s1.925-3.85 3.85-3.85l5.774-1.925c5.774-1.925 9.624-5.774 9.624-13.474v-55.82c-3.85-21.173 11.549-40.421 32.722-44.271 1.925 0 3.85 0 5.774 0 13.474 0 26.947 5.774 34.647 15.398 0 1.925 1.925 0 1.925 0l5.774-11.549c0-1.925 1.925-3.85 3.85-3.85h28.872c0 3.85 1.925 3.85 1.925 5.774zM3376.12 5.293c3.85 25.023-15.398 48.12-40.421 51.97-1.925 0-3.85 0-5.774 0-30.797-1.925-53.895-26.947-53.895-57.744 0 0 0-1.925 0-1.925 0-44.271 26.947-61.594 51.97-61.594 17.323 0 32.722 7.699 42.346 23.098 0 0 0 1.925 0 1.925l-3.85 3.85c0 0-1.925 0-1.925 0-7.699-9.624-17.323-15.398-28.872-17.323-15.398 0-34.647 11.549-34.647 42.346 0 3.85 1.925 5.774 5.774 5.774 0 0 0 0 0 0h63.519c1.925 1.925 3.85 5.774 5.774 9.624zM3353.023 16.842c0-3.85-1.925-7.699-7.699-9.624-3.85-1.925-9.624-1.925-15.398-1.925h-28.872c-1.925 0-3.85 1.925-3.85 3.85 0 0 0 0 0 1.925 1.925 21.173 13.474 36.571 28.872 36.571s25.023-13.474 25.023-28.872c1.925 0 1.925-1.925 1.925-1.925zM3481.985-29.353c0 40.421-69.293 36.571-69.293 59.669 1.925 9.624 11.549 17.323 21.173 17.323 21.173 0 32.722-3.85 38.496-25.023 0-1.925 1.925-1.925 1.925-1.925 1.925 0 1.925 1.925 1.925 3.85v26.947c0 1.925-1.925 1.925-1.925 1.925-13.474 1.925-25.023 3.85-38.496 3.85-28.872 0-38.496-13.474-38.496-32.722 0-40.421 69.293-30.797 69.293-61.594-1.925-11.549-11.549-19.248-23.098-17.323-19.248-3.85-38.496 9.624-44.271 28.872 0 1.925-1.925 3.85-3.85 3.85s-1.925-1.925-1.925-3.85 1.925-9.624 1.925-15.398 0-9.624 1.925-15.398c0-1.925 1.925-3.85 3.85-3.85 13.474-3.85 25.023-5.774 38.496-5.774 21.173 0 40.421 7.699 42.346 36.571zM3570.526-56.301l-1.925 3.85c0 0-1.925 0-1.925 0s0 0 0 0c-5.774-1.925-9.624-3.85-15.398-3.85-15.398 0-17.323 9.624-17.323 23.098v75.068h32.722c1.925 0 1.925 0 1.925 1.925 0 0 0 0 0 0v9.624c0 1.925 0 1.925-1.925 1.925h-30.797v36.571c0 1.925 0 3.85-1.925 3.85 0 0 0 0 0 0-1.925 0-1.925-1.925-1.925-1.925l-13.474-30.797c-1.925-3.85-3.85-5.774-7.699-5.774h-15.398c-1.925 0-1.925 0-1.925-1.925 0 0 0 0 0 0v-7.699c0-1.925 1.925-1.925 1.925-1.925h21.173v-78.917c0-19.248 11.549-25.023 34.647-25.023 5.774-5.774 13.474-3.85 19.248 1.925 1.925 0 1.925 0 0 0zM3108.571 282.466c0 34.647-26.947 46.195-59.669 46.195h-75.068c-1.925 0-3.85 0-3.85-1.925s1.925-3.85 3.85-3.85l11.549-1.925c5.774-1.925 9.624-5.774 9.624-11.549v-128.962c0-5.774-3.85-11.549-7.699-13.474-1.925 0-3.85-1.925-3.85-3.85s1.925-1.925 3.85-1.925h50.045c1.925 0 3.85 0 3.85 1.925s-1.925 3.85-3.85 3.85l-7.699 1.925c-5.774 1.925-9.624 5.774-9.624 13.474v46.195c0 1.925 1.925 3.85 5.774 3.85h17.323c44.271 0 65.444 21.173 65.444 50.045zM3083.549 280.541c0-32.722-21.173-38.496-46.195-38.496h-13.474c-1.925 0-5.774 1.925-5.774 5.774v61.594c0 3.85 3.85 5.774 7.699 5.774h15.398c30.797 1.925 42.346-9.624 42.346-34.647zM3204.812 274.767c0 1.925-1.925 3.85-3.85 3.85-3.85 1.925-5.774 1.925-9.624 1.925-15.398 0-28.872-7.699-36.571-19.248 0 0 0 0-1.925 0 0 0-1.925 0-1.925 1.925l-3.85 13.474c0 1.925-1.925 3.85-3.85 3.85h-26.947c-1.925 0-3.85 0-3.85-1.925s1.925-3.85 3.85-3.85l7.699-1.925c5.774-1.925 9.624-5.774 9.624-11.549v-76.992c0-5.774-3.85-11.549-9.624-13.474l-5.774-3.85c-1.925 0-3.85-1.925-3.85-3.85s1.925-1.925 3.85-1.925h50.045c1.925 0 3.85 0 3.85 1.925s-1.925 3.85-3.85 3.85l-5.774 1.925c-5.774 1.925-9.624 5.774-9.624 13.474v57.744c0 3.85 1.925 7.699 3.85 11.549 5.774 7.699 13.474 13.474 23.098 13.474 7.699 1.925 13.474-1.925 17.323-7.699 0-3.85 1.925-5.774 3.85-7.699 1.925 0 1.925 1.925 1.925 3.85l1.925 21.173zM3310.677 228.571c3.85 25.023-15.398 48.12-40.421 51.97-1.925 0-3.85 0-5.774 0-30.797-1.925-53.895-26.947-51.97-57.744 0 0 0-1.925 0-1.925 0-44.271 26.947-61.594 51.97-61.594 17.323 0 34.647 9.624 42.346 25.023 0 0 0 1.925 0 1.925l-5.774 3.85c0 0-1.925 0-1.925 0-5.774-9.624-17.323-15.398-28.872-17.323-15.398 0-34.647 11.549-34.647 42.346 0 3.85 1.925 5.774 5.774 5.774 0 0 0 0 0 0h63.519c1.925 1.925 5.774 3.85 5.774 7.699zM3289.504 240.12c0-3.85-1.925-7.699-7.699-9.624-3.85-1.925-9.624-1.925-15.398-1.925h-28.872c-1.925 0-3.85 1.925-3.85 3.85 0 0 0 0 0 1.925 1.925 21.173 13.474 36.571 28.872 36.571 15.398-1.925 25.023-13.474 25.023-28.872 1.925 0 1.925-1.925 1.925-1.925zM3404.992 332.511c0 1.925 0 3.85 0 3.85-7.699 3.85-15.398 7.699-25.023 5.774-17.323 3.85-34.647-9.624-38.496-26.947 0-1.925 0-5.774 0-7.699v-30.797h-15.398c-1.925 0-1.925 0-1.925-1.925 0 0 0 0 0 0v-7.699c0-1.925 1.925-1.925 1.925-1.925s0 0 0 0h15.398v-82.767c0-5.774 0-9.624-3.85-13.474-1.925 0-3.85-1.925-3.85-3.85s1.925-1.925 3.85-1.925h40.421c1.925 0 3.85 0 3.85 1.925s-1.925 3.85-3.85 3.85l-7.699 1.925c-5.774 1.925-9.624 5.774-9.624 13.474v84.692h38.496c1.925 0 1.925 0 1.925 1.925 0 0 0 0 0 0v9.624c0 1.925-1.925 1.925-1.925 1.925s0 0 0 0h-38.496v38.496c-1.925 9.624 5.774 17.323 15.398 19.248 0 0 0 0 0 0 7.699-1.925 15.398-7.699 19.248-15.398 0 0 1.925-1.925 1.925-1.925 1.925 0 3.85 0 3.85 1.925l3.85 7.699zM3503.158 228.571c3.85 25.023-15.398 48.12-40.421 51.97-1.925 0-3.85 0-5.774 0-30.797-1.925-53.895-28.872-50.045-59.669 0 0 0 0 0 0 0-44.271 26.947-61.594 51.97-61.594 17.323 0 34.647 9.624 42.346 25.023 0 0 0 1.925 0 1.925l-5.774 3.85c0 0-1.925 0-1.925 0s0 0 0 0c-5.774-9.624-17.323-15.398-28.872-17.323-15.398 0-34.647 11.549-34.647 42.346 0 3.85 1.925 5.774 5.774 5.774h63.519c1.925 1.925 3.85 3.85 3.85 7.699zM3481.985 240.12c0-3.85-1.925-7.699-7.699-9.624-3.85-1.925-9.624-1.925-15.398-1.925h-28.872c-1.925 0-3.85 1.925-3.85 3.85 0 0 0 1.925 0 1.925 1.925 21.173 13.474 36.571 28.872 36.571 15.398-1.925 25.023-13.474 25.023-28.872 1.925 0 1.925-1.925 1.925-1.925zM3603.248 274.767c0 1.925-1.925 3.85-3.85 3.85-3.85 1.925-5.774 1.925-9.624 1.925-15.398 0-28.872-7.699-36.571-19.248 0 0-1.925 0-1.925 0s-1.925 0-1.925 1.925l-3.85 13.474c0 1.925-1.925 3.85-3.85 3.85h-26.947c-1.925 0-3.85 0-3.85-1.925s1.925-3.85 3.85-3.85l7.699-1.925c5.774-1.925 9.624-5.774 9.624-11.549v-76.992c0-5.774-3.85-11.549-9.624-13.474l-5.774-1.925c-1.925 0-3.85-1.925-3.85-3.85s1.925-1.925 3.85-1.925h50.045c1.925 0 3.85 0 3.85 1.925s-1.925 3.85-3.85 3.85l-5.774 1.925c-5.774 1.925-9.624 5.774-9.624 13.474v57.744c0 3.85 1.925 7.699 3.85 11.549 3.85 7.699 13.474 13.474 23.098 13.474 7.699 1.925 13.474-1.925 17.323-7.699 0-3.85 1.925-7.699 5.774-9.624 1.925 0 1.925 1.925 1.925 3.85v21.173zM3699.489 274.767c0 1.925-1.925 3.85-3.85 3.85-3.85 1.925-5.774 1.925-9.624 1.925-15.398 0-28.872-7.699-36.571-19.248 0 0 0 0-1.925 0 0 0-1.925 0-1.925 1.925l-3.85 13.474c0 1.925-1.925 3.85-3.85 3.85h-26.947c-1.925 0-3.85 0-3.85-1.925s1.925-3.85 3.85-3.85l7.699-1.925c5.774-1.925 9.624-5.774 9.624-11.549v-76.992c0-5.774-3.85-11.549-9.624-13.474l-5.774-1.925c-1.925 0-3.85-1.925-3.85-3.85s1.925-1.925 3.85-1.925h50.045c1.925 0 3.85 0 3.85 1.925s-1.925 3.85-3.85 3.85l-5.774 1.925c-5.774 1.925-9.624 5.774-9.624 13.474v57.744c0 3.85 1.925 7.699 3.85 11.549 5.774 7.699 13.474 13.474 23.098 13.474 7.699 1.925 13.474-1.925 17.323-7.699 0-3.85 1.925-5.774 3.85-7.699 1.925 0 1.925 1.925 1.925 3.85l1.925 19.248zM3805.353 228.571c3.85 25.023-15.398 48.12-40.421 51.97-1.925 0-3.85 0-5.774 0-30.797-1.925-53.895-26.947-51.97-57.744 0 0 0-1.925 0-1.925 0-44.271 26.947-61.594 51.97-61.594 17.323 0 34.647 9.624 42.346 25.023 0 0 0 1.925 0 1.925l-3.85 3.85c0 0-1.925 0-1.925 0s0 0 0 0c-5.774-9.624-17.323-15.398-28.872-17.323-15.398 0-34.647 11.549-34.647 42.346 0 3.85 1.925 5.774 5.774 5.774 0 0 0 0 0 0h63.519c0 1.925 3.85 3.85 3.85 7.699zM3784.18 240.12c0-3.85-1.925-7.699-7.699-9.624s-9.624-1.925-15.398-1.925h-26.947c-1.925 0-3.85 1.925-3.85 3.85 0 0 0 0 0 1.925 1.925 21.173 13.474 36.571 28.872 36.571s25.023-13.474 25.023-28.872c0 0 0 0 0-1.925zM3943.94 163.128c0 1.925-1.925 3.85-3.85 3.85l-7.699 1.925c-5.774 1.925-9.624 5.774-9.624 13.474v140.511l1.925 19.248c0 1.925-1.925 3.85-3.85 3.85 0 0 0 0 0 0h-38.496c-1.925 0-3.85 0-3.85-1.925s1.925-3.85 3.85-3.85l11.549-1.925c5.774-1.925 9.624-5.774 9.624-11.549v-44.271c0 0 0-1.925-1.925-1.925 0 0 0 0-1.925 0-9.624 3.85-17.323 3.85-26.947 3.85-30.797-1.925-53.895-28.872-50.045-57.744 0 0 0-1.925 0-1.925 0-44.271 21.173-61.594 48.12-61.594 11.549 0 21.173 5.774 28.872 13.474 0 0 1.925 1.925 1.925 1.925s1.925 0 1.925-1.925l3.85-7.699c0-1.925 1.925-3.85 3.85-3.85h28.872c1.925 0 3.85 0 3.85 1.925zM3901.594 195.85c0-1.925 0-3.85-1.925-5.774-5.774-9.624-15.398-15.398-25.023-15.398-17.323 0-30.797 11.549-30.797 48.12 0 30.797 11.549 50.045 30.797 50.045 13.474 1.925 25.023-5.774 28.872-19.248 0-3.85 0-5.774 0-9.624v-48.12h-1.925zM3095.098 428.752c0 61.594-94.316 46.195-94.316 90.466 0 13.474 11.549 23.098 25.023 23.098 0 0 1.925 0 1.925 0 30.797 0 46.195-9.624 51.97-40.421 0-1.925 1.925-1.925 1.925-1.925 1.925 0 1.925 1.925 1.925 3.85 0 0 0 0 0 0v42.346c0 1.925-1.925 3.85-3.85 3.85-17.323 1.925-34.647 3.85-53.895 5.774-23.098 1.925-44.271-15.398-48.12-38.496 0-1.925 0-3.85 0-5.774 0-55.82 94.316-40.421 94.316-88.541 0-19.248-17.323-26.947-36.571-26.947-26.947-3.85-50.045 15.398-55.82 40.421 0 1.925-1.925 1.925-1.925 1.925-1.925 0-1.925-1.925-1.925-3.85l3.85-42.346c0-1.925 1.925-3.85 3.85-3.85 15.398-1.925 32.722-3.85 50.045-5.774 36.571 0 61.594 13.474 61.594 46.195zM3187.489 392.18l-1.925 3.85c0 0-1.925 1.925-1.925 0 0 0 0 0 0 0-5.774-1.925-9.624-3.85-15.398-3.85-15.398 0-17.323 9.624-17.323 21.173v75.068h32.722c1.925 0 1.925 0 1.925 1.925 0 0 0 0 0 0v7.699c0 1.925 0 1.925-1.925 1.925h-30.797v36.571c0 1.925 0 3.85-1.925 3.85 0 0 0 0 0 0-1.925 0-1.925-1.925-1.925-1.925l-13.474-30.797c0-3.85-3.85-5.774-7.699-5.774h-15.398c-1.925 0-1.925-1.925-1.925-1.925v-7.699c0-1.925 1.925-1.925 1.925-1.925h21.173v-78.917c0-19.248 11.549-25.023 34.647-25.023 7.699 0 15.398 1.925 23.098 5.774-3.85-1.925-3.85-1.925-3.85 0-1.925 0-1.925 0 0 0zM3310.677 386.406c0 1.925-1.925 3.85-3.85 3.85l-7.699 1.925c-5.774 1.925-9.624 7.699-9.624 11.549v57.744c0 32.722-17.323 40.421-44.271 40.421-11.549 0-23.098-1.925-34.647-3.85-1.925 0-1.925-1.925-1.925-1.925s0 0 0 0v-32.722c0 0 0-1.925 1.925-1.925 0 0 0 0 0 0s1.925 0 1.925 1.925c0 17.323 13.474 28.872 30.797 28.872 1.925 0 1.925 0 3.85 0 11.549 1.925 23.098-5.774 25.023-17.323v-11.549c0-7.699-7.699-13.474-15.398-13.474-13.474-3.85-28.872-5.774-38.496-9.624-11.549-3.85-19.248-15.398-19.248-28.872 0-17.323 13.474-28.872 30.797-28.872 1.925 0 1.925 0 3.85 0 11.549 0 25.023 3.85 34.647 9.624 0 0 1.925 1.925 3.85 1.925s1.925 0 1.925-1.925l1.925-3.85c0-1.925 1.925-3.85 3.85-3.85h26.947c1.925 0 3.85 0 3.85 1.925zM3268.331 413.353c-3.85-13.474-17.323-23.098-30.797-21.173-11.549 0-21.173 7.699-21.173 19.248 0 1.925 0 3.85 0 3.85 0 7.699 5.774 15.398 13.474 15.398l36.571 9.624c1.925 0 3.85 0 3.85-1.925l-1.925-25.023zM3403.068 498.045c0 1.925-1.925 3.85-3.85 3.85-3.85 0-5.774 1.925-9.624 1.925-15.398 0-28.872-7.699-36.571-19.248 0 0 0 0-1.925 0 0 0-1.925 0-1.925 1.925l-3.85 11.549c0 1.925-1.925 3.85-3.85 3.85h-26.947c-1.925 0-3.85 0-3.85-1.925s1.925-3.85 3.85-3.85l7.699-1.925c5.774-1.925 9.624-5.774 9.624-11.549v-76.992c0-5.774-3.85-11.549-9.624-11.549l-5.774-1.925c-1.925 0-3.85-1.925-3.85-3.85s1.925-1.925 3.85-1.925h50.045c1.925 0 3.85 0 3.85 1.925s-1.925 3.85-3.85 3.85l-5.774 1.925c-5.774 1.925-9.624 5.774-9.624 11.549v57.744c0 3.85 1.925 7.699 3.85 11.549 5.774 7.699 13.474 13.474 23.098 13.474 7.699 1.925 13.474-1.925 17.323-9.624 0-3.85 1.925-5.774 3.85-7.699 1.925 0 1.925 1.925 1.925 3.85l1.925 23.098zM3584 499.97c0 1.925-1.925 1.925-3.85 1.925h-32.722c-1.925 0-3.85 0-3.85-1.925s0-1.925 1.925-1.925l7.699-3.85c3.85-1.925 3.85-5.774 1.925-9.624l-19.248-73.143c0-1.925-1.925-1.925-3.85 0l-28.872 86.617c-1.925 1.925-3.85 1.925-5.774 1.925s-3.85 0-5.774-1.925l-30.797-84.692c0 0-1.925-1.925-1.925-1.925s0 0-1.925 1.925l-17.323 71.218c-1.925 3.85 0 7.699 3.85 9.624l5.774 3.85c1.925 0 1.925 1.925 1.925 1.925 0 1.925-1.925 1.925-3.85 1.925h-38.496c-1.925 0-3.85 0-3.85-1.925s1.925-3.85 3.85-3.85l5.774-1.925c3.85 0 5.774-3.85 5.774-5.774l30.797-103.94c3.85-3.85 11.549-3.85 15.398 0l26.947 75.068c0 1.925 1.925 1.925 3.85 0 0 0 0 0 0 0l25.023-76.992c1.925-1.925 5.774-3.85 7.699-1.925 3.85 0 5.774 0 7.699 1.925l34.647 103.94c1.925 3.85 3.85 5.774 7.699 7.699 1.925 1.925 3.85 3.85 3.85 5.774zM3693.714 444.15c3.85 28.872-17.323 55.82-46.195 59.669s-55.82-17.323-59.669-46.195c0-3.85 0-7.699 0-13.474-3.85-28.872 15.398-57.744 46.195-61.594 28.872-3.85 57.744 15.398 61.594 46.195-1.925 3.85-1.925 9.624-1.925 15.398zM3672.541 440.301c0-19.248-5.774-48.12-30.797-48.12s-32.722 34.647-32.722 55.82 5.774 46.195 30.797 46.195 32.722-32.722 32.722-53.895zM3816.902 444.15c3.85 28.872-17.323 55.82-46.195 59.669s-55.82-17.323-59.669-46.195c0-3.85 0-7.699 0-13.474-3.85-28.872 15.398-57.744 46.195-61.594 28.872-3.85 57.744 15.398 61.594 46.195 0 3.85 0 9.624-1.925 15.398zM3795.729 440.301c0-19.248-5.774-48.12-30.797-48.12s-32.722 34.647-32.722 55.82 5.774 46.195 30.797 46.195 32.722-32.722 32.722-53.895zM3955.489 386.406c0 1.925-1.925 3.85-3.85 3.85l-7.699 1.925c-5.774 1.925-9.624 5.774-9.624 11.549v138.586l1.925 19.248c0 1.925-1.925 3.85-3.85 3.85 0 0 0 0 0 0h-38.496c-1.925 0-3.85 0-3.85-1.925s1.925-3.85 3.85-3.85l11.549-1.925c5.774-1.925 9.624-5.774 9.624-11.549v-44.271c0 0 0-1.925-1.925-1.925 0 0 0 0-1.925 0-9.624 1.925-17.323 3.85-26.947 3.85-30.797-1.925-51.97-28.872-50.045-57.744 0 0 0-1.925 0-1.925 0-44.271 21.173-61.594 48.12-61.594 11.549 0 21.173 5.774 28.872 13.474 0 0 1.925 1.925 1.925 1.925s1.925 0 1.925-1.925l3.85-7.699c0-1.925 1.925-3.85 3.85-3.85h28.872c1.925 1.925 3.85 1.925 3.85 1.925zM3913.143 419.128c0-1.925 0-3.85-1.925-5.774-5.774-9.624-15.398-15.398-25.023-15.398-17.323 0-30.797 11.549-30.797 48.12 0 30.797 11.549 50.045 30.797 50.045 13.474 1.925 25.023-5.774 28.872-19.248 0-3.85 0-5.774 0-9.624-1.925 0-1.925-48.12-1.925-48.12zM2198.135 711.699c0 113.564-196.331 102.015-196.331 169.383 0 30.797 26.947 46.195 61.594 46.195 61.594 0 90.466-9.624 109.714-69.293 0-3.85 3.85-5.774 5.774-7.699 3.85 0 3.85 5.774 3.85 9.624l-1.925 76.992c0 3.85-3.85 7.699-7.699 7.699-34.647 5.774-71.218 7.699-105.865 9.624-80.842 0-109.714-38.496-109.714-92.391 0-113.564 194.406-88.541 194.406-171.308 0-34.647-38.496-50.045-67.368-50.045-63.519 0-100.090 15.398-123.188 78.917 0 3.85-3.85 7.699-7.699 7.699-5.774 0-5.774-3.85-5.774-9.624 1.925-11.549 3.85-28.872 3.85-42.346s1.925-30.797 3.85-42.346c0-5.774 5.774-9.624 9.624-9.624 36.571-9.624 73.143-15.398 109.714-15.398 69.293 3.85 123.188 23.098 123.188 103.94zM2558.075 780.992c0 127.038-63.519 175.158-134.737 175.158-32.722 0-61.594-15.398-84.692-38.496-1.925-1.925-3.85-3.85-5.774-3.85s-3.85 1.925-5.774 3.85l-9.624 21.173c-1.925 5.774-7.699 9.624-13.474 9.624h-88.541c-7.699 0-13.474-1.925-13.474-5.774 1.925-5.774 7.699-9.624 13.474-7.699l32.722-3.85c15.398-3.85 26.947-19.248 25.023-34.647v-373.414c1.925-13.474-1.925-28.872-9.624-40.421-3.85-1.925-7.699-5.774-9.624-11.549 0-3.85 3.85-5.774 9.624-5.774h117.414c7.699 0 13.474 1.925 13.474 5.774-1.925 5.774-7.699 7.699-13.474 9.624l-25.023 3.85c-15.398 3.85-26.947 17.323-26.947 34.647v102.015c0 1.925 1.925 5.774 3.85 5.774s1.925 0 3.85 0c25.023-7.699 50.045-13.474 75.068-11.549 78.917-3.85 146.286 63.519 146.286 165.534zM2498.406 782.917c0-88.541-34.647-142.436-86.617-142.436-61.594 0-80.842 26.947-80.842 80.842v134.737c0 5.774 1.925 11.549 5.774 17.323 15.398 25.023 42.346 42.346 73.143 44.271 46.195 0 88.541-32.722 88.541-134.737zM2937.263 923.429v19.248c0 5.774-3.85 5.774-7.699 5.774l-130.887-5.774c-21.173 9.624-44.271 13.474-67.368 13.474-78.917 0-140.511-46.195-140.511-117.414 0-44.271 26.947-84.692 67.368-102.015 3.85 0 5.774-3.85 3.85-5.774 0-1.925-1.925-3.85-3.85-3.85-23.098-9.624-36.571-30.797-36.571-55.82 0-15.398 7.699-28.872 19.248-38.496-30.797-15.398-50.045-48.12-51.97-82.767 0-71.218 67.368-96.241 128.962-96.241 76.992 0 184.782 28.872 184.782 123.188 0 75.068-48.12 92.391-117.414 92.391-36.571 0-78.917-3.85-92.391-3.85-15.398-3.85-28.872 5.774-32.722 21.173 0 1.925 0 3.85 0 5.774 0 19.248 21.173 30.797 46.195 30.797h23.098c78.917 0 138.586 46.195 138.586 117.414 0 26.947-7.699 51.97-26.947 73.143l84.692 1.925c3.85 0 7.699 1.925 7.699 5.774 3.85 0 3.85 0 3.85 1.925zM2814.075 831.038c0-48.12-25.023-80.842-75.068-80.842-59.669 0-88.541 40.421-88.541 98.165 0 48.12 26.947 76.992 76.992 76.992 57.744 0 86.617-36.571 86.617-94.316zM2860.271 563.489c0-55.82-67.368-65.444-109.714-65.444-46.195 0-117.414 17.323-117.414 71.218 0 15.398 5.774 42.346 25.023 48.12 15.398 0 73.143 1.925 113.564 1.925 63.519 0 88.541-15.398 88.541-55.82zM3056.601 638.556l-26.947 32.722 42.346 7.699c0 1.925 0 1.925 0 3.85l-42.346 7.699 26.947 32.722-1.925 1.925-38.496-21.173v44.271h-3.85l-15.398-40.421-26.947 32.722-1.925-1.925 15.398-40.421-42.346 7.699-1.925-3.85 38.496-21.173-38.496-21.173 1.925-3.85 42.346 7.699-15.398-40.421 1.925-1.925 26.947 32.722 15.398-40.421h3.85v44.271l38.496-21.173 1.925 1.925zM146.286 752.12l-7.699 38.496h-46.195l-7.699-38.496h-34.647l50.045 198.256h30.797l48.12-200.18h-32.722zM115.489 902.256l-17.323-82.767h34.647l-17.323 82.767zM342.617 829.113h-19.248v-76.992h-30.797v198.256h50.045c36.571 0 51.97-19.248 51.97-59.669s-15.398-61.594-51.97-61.594zM342.617 923.429h-19.248v-65.444h19.248c17.323 0 19.248 15.398 19.248 32.722s-3.85 32.722-19.248 32.722v0zM521.624 752.12l-7.699 38.496h-46.195l-7.699-38.496h-32.722l48.12 200.18h30.797l48.12-200.18c0 0-32.722 0-32.722 0zM490.827 902.256l-17.323-82.767h34.647l-17.323 82.767zM669.835 752.12l-26.947 80.842h-17.323v-80.842h-30.797v198.256h50.045c36.571 0 50.045-17.323 50.045-59.669 0-25.023-5.774-42.346-23.098-51.97l28.872-88.541-30.797 1.925zM646.737 923.429h-19.248v-61.594h19.248c17.323 0 19.248 13.474 19.248 30.797s-3.85 30.797-19.248 30.797zM804.571 923.429v-171.308h-30.797v171.308h-32.722v26.947h98.165v-28.872h-34.647zM962.406 752.12l-48.12 119.338v-119.338h-30.797v198.256h28.872l46.195-117.414v117.414h30.797v-200.18h-26.947zM1045.173 752.12v198.256h82.767v-28.872h-51.97v-55.82h44.271v-28.872h-44.271v-57.744h51.97v-28.872h-82.767zM1253.053 752.12l-26.947 80.842h-17.323v-80.842h-30.797v198.256h50.045c36.571 0 50.045-17.323 50.045-59.669 0-25.023-5.774-42.346-23.098-51.97l28.872-88.541-30.797 1.925zM1228.030 923.429h-19.248v-61.594h19.248c17.323 0 19.248 13.474 19.248 30.797s-1.925 30.797-19.248 30.797zM1493.654 767.519c-19.248-21.173-53.895-23.098-75.068-1.925 0 0-1.925 1.925-1.925 1.925-15.398 17.323-15.398 46.195-15.398 84.692s0 67.368 15.398 84.692c19.248 21.173 53.895 23.098 75.068 1.925 0 0 1.925-1.925 1.925-1.925 15.398-17.323 15.398-46.195 15.398-84.692s-1.925-69.293-15.398-84.692zM1468.632 917.654c-3.85 5.774-9.624 7.699-15.398 7.699s-11.549-1.925-15.398-7.699c-5.774-9.624-7.699-28.872-7.699-65.444s1.925-55.82 7.699-65.444c3.85-5.774 9.624-7.699 15.398-7.699s11.549 1.925 15.398 7.699c5.774 9.624 5.774 28.872 5.774 65.444s1.925 55.82-5.774 65.444zM1589.895 923.429v-55.82h44.271v-28.872h-44.271v-86.617h-30.797v198.256h82.767v-28.872h-51.97z" />
<glyph unicode="&#xe91c;" glyph-name="oe-video" horiz-adv-x="985" d="M957.046 609.477v0 0zM771.938 562.215v35.446c0 43.323-35.446 78.769-78.769 78.769h-102.4c70.892 39.385 94.523 129.969 55.138 196.923-39.385 70.892-129.969 94.523-196.923 55.138-35.446-15.754-59.077-47.262-70.892-86.646-19.692 78.769-98.462 126.031-177.231 106.338s-126.031-98.462-106.338-177.231c7.877-39.385 35.446-70.892 66.954-90.585h-55.138c-43.323 0-78.769-35.446-78.769-78.769v-315.077c0-43.323 35.446-78.769 78.769-78.769h35.446l-70.892-256 39.385-11.815 74.831 263.877h437.169l70.892-248.123 39.385 11.815-66.954 240.246h27.569c43.323 0 78.769 35.446 78.769 78.769v19.692l185.108-55.138v358.4l-185.108-47.262zM500.185 912.738c7.877 0 11.815 0 19.692 0 59.077 0 106.338-51.2 106.338-110.277 0-51.2-35.446-94.523-86.646-102.4-7.877 0-11.815 0-19.692 0-59.077 0-106.338 51.2-106.338 110.277 3.938 47.262 39.385 90.585 86.646 102.4zM378.092 770.954c7.877-39.385 35.446-70.892 66.954-90.585h-137.846c35.446 19.692 63.015 51.2 70.892 90.585zM129.969 810.338c0 51.2 35.446 94.523 86.646 102.4 7.877 0 11.815 0 19.692 0 59.077 0 106.338-51.2 106.338-110.277 0-51.2-35.446-94.523-86.646-102.4-7.877 0-11.815 0-19.692 0-59.077 0-106.338 51.2-106.338 110.277zM693.169 247.138h-586.831c-23.631 0-39.385 15.754-39.385 39.385v315.077c0 23.631 15.754 39.385 39.385 39.385h582.892c23.631 0 39.385-15.754 39.385-39.385v-311.138h3.938c0-27.569-15.754-43.323-39.385-43.323zM917.662 302.277v0l-145.723 43.323v177.231l145.723 35.446v-256z" />
<glyph unicode="&#xe91d;" glyph-name="oe-view-hotel" horiz-adv-x="1254" d="M142.106-22.204c-66.873 0-121.208 54.335-121.208 121.208v493.192c0 66.873 54.335 125.388 121.208 125.388h969.665c66.873-4.18 121.208-58.514 121.208-125.388v-497.371c0-33.437-12.539-62.694-37.616-83.592-20.898-20.898-54.335-33.437-83.592-33.437 0 0 0 0 0 0h-969.665c0 0 0 0 0 0zM1111.771 679.967h-965.486c-45.976 0-79.412-37.616-79.412-83.592v-497.371c0-41.796 37.616-79.412 79.412-79.412 0 0 0 0 0 0h969.665c20.898 0 41.796 8.359 58.514 20.898 16.718 16.718 25.078 33.437 25.078 54.335v497.371c-8.359 45.976-45.976 83.592-87.771 87.771zM806.661 759.38l-33.437 4.18c0 4.18 0 12.539 0 16.718-4.18 71.053-66.873 129.567-142.106 125.388v0h-4.18c0 0 0 0 0 0-79.412 0-142.106-62.694-146.286-142.106h-33.437c0 45.976 20.898 91.951 54.335 125.388s79.412 50.155 125.388 50.155c91.951 4.18 171.363-62.694 179.722-154.645 0-12.539 0-20.898 0-25.078zM443.037 579.657h41.796v-484.833h-41.796v484.833zM769.045 579.657h41.796v-484.833h-41.796v484.833zM973.845 429.192l-146.286 150.465v79.412h91.951l150.465-137.927-96.131-91.951zM865.176 596.376l104.49-108.669 33.437 33.437-104.49 96.131h-33.437v-20.898z" />
<glyph unicode="&#xe91e;" glyph-name="oe-world" d="M496.246 960h39.385c31.508 0 63.015-7.877 94.523-15.754 145.723-35.446 271.754-133.908 338.708-267.815 27.569-55.138 47.262-118.154 51.2-181.169 0-11.815 0-23.631 3.938-35.446v-31.508c0-3.938 0-3.938 0-3.938 0-39.385-7.877-78.769-19.692-118.154-31.508-110.277-98.462-204.8-192.985-271.754-74.831-55.138-165.415-90.585-259.938-98.462h-59.077c-263.877 11.815-472.615 212.677-492.308 472.615 0 7.877 0 15.754 0 23.631v35.446c0 3.938 0 3.938 0 7.877 3.938 19.692 3.938 43.323 7.877 63.015 15.754 102.4 66.954 196.923 141.785 271.754 82.708 86.646 200.862 141.785 322.954 149.662h23.631zM51.2 471.631h173.292c3.938 0 3.938 3.938 3.938 3.938 3.938 55.138 11.815 106.338 27.569 157.538l3.938 15.754c-43.323 15.754-86.646 39.385-126.031 63.015-47.262-66.954-78.769-149.662-82.708-240.246zM764.062 648.862v0c19.692-59.077 27.569-114.215 31.508-173.292 0-3.938 3.938-3.938 3.938-3.938h173.292c-3.938 86.646-35.446 173.292-86.646 244.185-39.385-23.631-78.769-47.262-122.092-66.954zM972.8 424.369h-177.231c-3.938-31.508-3.938-59.077-11.815-90.585-3.938-27.569-11.815-59.077-19.692-86.646 19.692-7.877 39.385-19.692 63.015-31.508s39.385-23.631 59.077-35.446c51.2 70.892 82.708 153.6 86.646 244.185zM259.938 247.138c-19.692 59.077-27.569 118.154-31.508 177.231h-177.231c3.938-86.646 35.446-173.292 86.646-244.185 19.692 11.815 39.385 23.631 59.077 35.446s39.385 19.692 63.015 31.508zM279.631 424.369c0-55.138 11.815-110.277 27.569-161.477 59.077 19.692 118.154 27.569 181.169 31.508v3.938c0 39.385 0 78.769 0 118.154 0 7.877 0 7.877-7.877 7.877h-200.862zM535.631 294.4c59.077-3.938 122.092-11.815 181.169-31.508 15.754 51.2 27.569 106.338 27.569 161.477h-200.862c-3.938 0-3.938 0-3.938-3.938 0 0 0 0 0 0 0-39.385 0-78.769 0-118.154-3.938-3.938-3.938-7.877-3.938-7.877zM307.2 633.108c-15.754-51.2-27.569-106.338-27.569-161.477h200.862c3.938 0 3.938 0 3.938 3.938 0 0 0 0 0 3.938 0 39.385 0 78.769 0 118.154 0 0 0 3.938 0 3.938-59.077 3.938-118.154 15.754-177.231 31.508zM744.369 471.631c-3.938 55.138-11.815 110.277-31.508 161.477-59.077-19.692-118.154-27.569-177.231-31.508 0-3.938 0-3.938 0-3.938 0-39.385 0-78.769 0-118.154 0-3.938 0-7.877 7.877-7.877h200.862zM322.954 215.631c35.446-86.646 90.585-161.477 161.477-224.492v252.062c-51.2 0-106.338-11.815-161.477-27.569zM535.631 243.2v-252.062c70.892 63.015 126.031 137.846 161.477 224.492-51.2 15.754-106.338 27.569-161.477 27.569v0zM488.369 900.923c-70.892-59.077-126.031-137.846-161.477-220.554 51.2-15.754 106.338-23.631 161.477-27.569v248.123zM697.108 680.369c-35.446 82.708-90.585 161.477-161.477 220.554v-248.123c55.138 0 110.277 11.815 161.477 27.569v0zM279.631 696.123c15.754 39.385 35.446 74.831 55.138 106.338 23.631 35.446 47.262 66.954 74.831 94.523-90.585-19.692-177.231-70.892-240.246-141.785 31.508-23.631 70.892-43.323 110.277-59.077zM854.646 755.2c-63.015 70.892-149.662 122.092-244.185 141.785 27.569-31.508 55.138-63.015 74.831-94.523 23.631-35.446 43.323-70.892 59.077-106.338 39.385 15.754 78.769 35.446 110.277 59.077zM405.662-0.985c-55.138 59.077-98.462 126.031-129.969 200.862-39.385-15.754-74.831-35.446-110.277-59.077 63.015-70.892 149.662-122.092 240.246-141.785zM858.585 140.8c-35.446 23.631-70.892 43.323-110.277 59.077-31.508-74.831-74.831-141.785-129.969-200.862 94.523 23.631 177.231 70.892 240.246 141.785z" />
</font></defs></svg>